80100000 .text
80108fe0 .rodata
8010991c .stab
8010991d .stabstr
8010a000 .data
8010c5e0 .bss
00000000 .debug_line
00000000 .debug_info
00000000 .debug_abbrev
00000000 .debug_aranges
00000000 .debug_loc
00000000 .debug_pubnames
00000000 .debug_pubtypes
00000000 .debug_str
00000000 .comment
00000000 .debug_frame
00000000 .debug_ranges
00000000 bio.c
801000b1 bget
00000000 cmos.c
801002b4 inb
801002d1 outb
801003a1 fill_rtcdate
00000000 console.c
801005e0 inb
801005fd outb
8010061b cli
8010c5e0 panicked
8010c600 cons
80100621 printint
8010a004 digits.1432
80100aa0 consputc
8010a000 crt
80100901 cgaputc
00000000 debug.c
80100e48 inb
80100e65 outb
80100e83 readeflags
80100e93 cli
80100e99 sti
80100e9f xchg
8010c638 uart
8010c63c locked
80100eb9 lock
80100ef0 unlock
80100f17 cantransmit
80100f31 debugputc
8010104c printint
8010a018 digits.1374
00000000 exec.c
00000000 file.c
00000000 fs.c
80101ace bzero
80101b1f balloc
80101c6b bfree
80101f6c iget
8010241e itrunc
8010231c bmap
80102a56 skipelem
80102b08 namex
00000000 ide.c
80102c64 inb
80102c81 insl
80102ca6 outb
80102cc4 outsl
8010c640 idelock
8010c674 idequeue
8010c678 havedisk1
80102ce9 diskready
80102d18 idewait
80102df1 idestart
00000000 ioapic.c
8010c67c maxintr
801030ec ioapicread
80103109 ioapicwrite
00000000 kalloc.c
00000000 kbd.c
801033ec inb
8010a040 shiftcode
8010a140 togglecode
8010a240 normalmap
8010a340 shiftmap
8010a440 ctlmap
8010c680 shift.1273
8010a540 charcode.1274
00000000 lapic.c
8010356c readeflags
8010357c lapicw
8010c684 n.1362
00000000 log.c
80103a49 recover_from_log
801038b4 install_trans
8010395f read_head
801039ce write_head
80103c41 commit
80103b96 write_log
00000000 main.c
80103d3c xchg
80103e67 startothers
80103e20 mpmain
80103e06 mpenter
00000000 mp.c
80103f4c inb
80103f69 outb
80103f87 sum
80103fbd mpsearch1
8010402d mpsearch
801040e7 mpconfig
00000000 picirq.c
80104434 outb
8010c000 irqmask
80104452 picsetmask
00000000 pipe.c
00000000 proc.c
801049cc readeflags
801049dc sti
8010c698 initproc
801049fe allocproc
801056b8 wakeup1
8010c020 first.1803
8010c008 states.1858
00000000 spinlock.c
801058a8 readeflags
801058b8 cli
801058be sti
801058c4 xchg
00000000 string.c
80105b18 stosb
80105b3d stosl
00000000 syscall.c
8010c040 syscalls
00000000 sysfile.c
80106018 argfd
8010608d fdalloc
80106459 isdirempty
8010669f create
00000000 sysproc.c
00000000 timer.c
80106f08 outb
00000000 trap.c
80106fa4 lidt
80106fcd sti
80106fd3 rcr2
8010c6c0 idt
8010717a trap_exit
00000000 uart.c
801074ec inb
80107509 outb
8010cec0 uart
80107638 cantransmit
80107652 hasreceived
801076be uartgetc
00000000 vm.c
80108180 lgdt
801081a9 ltr
801081bf loadgs
801081d4 lcr3
8010cec4 kpgdir
80108655 walkpgdir
801086e5 mappages
8010c4e0 kmap
80100c86 consoleread
801080d6 vector242
80107b2d vector119
8010000c entry
80107a0d vector87
80107a04 vector86
80105d95 safestrcpy
80106228 sys_close
80108142 vector251
801010f4 debugf
80107a31 vector91
80107827 vector33
80107d16 vector162
801055ac yield
80113ae0 log
80113aa0 kmem
80107f7a vector213
80107aca vector108
80107527 uartinit
80107881 vector43
80103756 lapiceoi
80106f26 timerinit
80107d3a vector165
80107e2a vector185
8010c690 lastpriority
80103129 ioapicinit
80107b09 vector115
8010033a cmoswrite
80101886 fileread
80107b48 vector122
80106dff sys_sbrk
80113bc0 ioapicid
80107cce vector156
801080fa vector245
80113a94 ioapic
80107e5a vector189
8010774b vector7
80107923 vector61
801077d6 vector24
80107ae5 vector111
80107ede vector200
80107959 vector67
80107bf6 vector138
80107998 vector74
801054fa sched
80105c35 memmove
801078ff vector57
80105f86 syscall
80107f86 vector214
80107a79 vector99
801026dc writei
801071c3 stop_capture
80107c1a vector141
80106d94 sys_fork
8010dee0 bcache
80107d8e vector172
801080ca vector241
80113bc4 ismp
801059b7 getcallerpcs
801069f9 sys_mkdir
8010815a vector253
80107727 vector3
8010771e vector2
80102874 namecmp
80108022 vector227
80116420 cs
80107f56 vector210
80105f4f argstr
80107ffe vector224
8010786f vector41
801006c9 cprintf
80101719 filedup
80102c1f namei
801077bb vector21
80100034 binit
80107dca vector177
80107b24 vector118
80107974 vector70
8010796b vector69
8010809a vector237
8010793e vector64
801077f1 vector27
80107bae vector132
80107e36 vector186
8010c6a0 capturing
80106130 sys_read
80107faa vector217
80105e20 fetchint
80108779 setupkvm
80105cbc memcpy
80108cf0 freevm
80107715 vector1
80105121 sys_switch_scheduler
80107dd6 vector178
80107854 vector38
80103308 kfree
801080a6 vector238
8010222d iput
80107bba vector133
8010798f vector73
80107c3e vector144
80108166 vector254
80101a88 readsb
8010c004 nextpid
80107a8b vector101
80107f62 vector211
80104191 mpinit
80107da6 vector174
801080e2 vector243
801036fa cpunum
8010169c fileinit
801058de initlock
80107b7e vector128
80108f33 copyout
801079d7 vector81
8010561d sleep
8010377b microdelay
80107779 vector13
801078c9 vector51
80107790 vector16
80112000 input
801080be vector240
801078e4 vector54
801077a9 vector19
80107a3a vector92
801080ee vector244
8010252b stati
80107c0e vector140
80106dc0 sys_kill
80107893 vector45
801079c5 vector79
80104757 pipeclose
8010803a vector229
80107ce6 vector158
80106279 sys_fstat
80100d87 consolewrite
8010785d vector39
80107d5e vector168
80103aec end_op
80107839 vector35
80107af7 vector113
801032cc freerange
80107b63 vector125
80108b52 allocuvm
80106f98 trapret
80107f9e vector216
80107935 vector63
801077e8 vector26
80107e8a vector193
8010359e lapicinit
80107eae vector196
80107f4a vector209
80107730 vector4
80107d76 vector170
8010ced0 stack
80107bde vector136
80107764 vector10
80107f26 vector206
801021c8 iunlock
80106e49 sys_sleep
80108172 vector255
80107dfa vector181
80107911 vector59
801079fb vector85
801079f2 vector84
80107e12 vector183
80107cf2 vector159
80107f6e vector212
801062d8 sys_link
801078a5 vector47
8010802e vector228
80107878 vector42
80107b00 vector114
80108ed9 uva2ka
80107db2 vector175
80107c32 vector143
801016b8 filealloc
801056fa wakeup
80107b96 vector130
80108106 vector246
8010775b vector9
80107c26 vector142
80107a82 vector100
801002ef cmosread
80107eea vector201
80108d7b clearpteu
80106fe4 tvinit
8010791a vector60
801077cd vector23
8010203f idup
8010808e vector236
80103557 kbdintr
8010685f sys_open
80108052 vector231
80107950 vector66
80107803 vector29
80102570 readi
80107bd2 vector135
80100afd consoleintr
80105725 kill
801079b3 vector77
80101dd7 ialloc
80107dee vector180
80107f3e vector208
80100414 cmostime
801076f5 uartintr
80107a70 vector98
80107a67 vector97
80107dbe vector176
80107e96 vector194
8010781e vector32
80116478 end
80107210 sys_stop_capture
80107ed2 vector199
80107ba2 vector131
8010814e vector252
80101942 filewrite
8010770c vector0
80105ebe argint
80101284 exec
80107c4a vector145
801061ac sys_write
80105968 release
80105e5a fetchstr
80107ac1 vector107
80107866 vector40
80104ff5 wait
80107a94 vector102
8010b000 entrypgdir
8010c694 mostrecent
0010000c _start
801078f6 vector56
80107962 vector68
80107742 vector6
8010c54c _binary_initcode_end
80100000 multiboot_header
80107b8a vector129
80105157 scheduler
80102896 dirlookup
80107eba vector197
80101761 fileclose
80103a6a begin_op
80107c9e vector152
80108816 kvmalloc
80108046 vector230
80105cdd strncmp
8010784b vector37
80107f1a vector205
80107d0a vector161
80116440 tickslock
801047e9 pipewrite
80105d35 strncpy
8010797d vector71
80108dc1 copyuvm
801120a0 ftable
80107cfe vector160
80105eed argptr
80107f92 vector215
80107cda vector157
801060d9 sys_dup
80107aee vector112
80100869 panic
801055de forkret
80107e06 vector182
80107772 vector12
80105bd9 memcmp
80103409 kbdgetc
80107ad3 vector109
801077b2 vector20
80104cc6 fork
801078db vector53
801077a0 vector18
00000086 _binary_entryother_size
80113be0 cpus
80107a55 vector95
80105a33 holding
80112aa0 sb
801058ff acquire
80108016 vector226
80102c41 nameiparent
801078b7 vector49
8010788a vector44
80113adc lapic
801079bc vector78
80106f78 alltraps
80107d9a vector173
80107b1b vector117
801079e0 vector82
8010449d picenable
80107fe6 vector222
80107754 vector8
80107c7a vector149
80101eab iupdate
8010a000 data
80105b62 memset
8010805e vector232
80103d56 main
80108842 switchkvm
80107ab8 vector106
80107fce vector220
80107a28 vector90
80107d22 vector163
80108076 vector234
80103c70 log_write
801064c7 sys_unlink
8010792c vector62
801077df vector25
80107ec6 vector198
80107b36 vector120
8010c54c _binary_entryother_start
80103270 kinit1
801078c0 vector50
80107787 vector15
80107c92 vector151
801079e9 vector83
80107a1f vector89
80107a16 vector88
8010724e trap
80106edb sys_uptime
80107de2 vector179
80107830 vector34
8010789c vector46
80107bc6 vector134
80107ff2 vector223
80107fb6 vector218
8010718c start_capture
801049e2 pinit
80108c3a deallocuvm
8010c688 sched_type
8010800a vector225
80107e42 vector187
80104c21 growproc
801141c0 ncpu
8010780c vector30
80104b01 userinit
801001a7 bread
80107b75 vector127
801048d9 piperead
80116474 ticks
80107e7e vector192
80107d46 vector166
80100dee consoleinit
801079aa vector76
801079a1 vector75
80102f4d ideintr
80107ea2 vector195
80107c86 vector150
80107908 vector58
8010811e vector248
80107b51 vector123
80107a5e vector96
80107815 vector31
80107f02 vector203
80107c02 vector139
80107caa vector153
80107d2e vector164
801057a1 procdump
80107b3f vector121
8010766c uartputc
80107739 vector5
80107d52 vector167
80107cc2 vector155
8010812a vector249
80100218 brelse
80108136 vector250
80107b5a vector124
80107adc vector110
80107f0e vector204
80102071 ilock
80106bb2 sys_exec
80107bea vector137
8010c520 _binary_initcode_start
80105e08 swtch
80108112 vector247
801077c4 vector22
80107ef6 vector202
801081df seginit
801022fe iunlockput
80107986 vector72
801078ed vector55
80107b6c vector126
80107947 vector65
801077fa vector28
8010c5d2 _binary_entryother_end
80107d6a vector169
801001de bwrite
8010806a vector233
8010715e idtinit
80104e5b exit
80106db3 sys_wait
80106da1 sys_exit
8010295e dirlink
0000002c _binary_initcode_size
80107c62 vector147
80102d4b ideinit
80108a6a loaduvm
80107aa6 vector104
80107b12 vector116
801141e0 ptable
801031fa ioapicenable
80105aa5 popcli
8010c0c4 vectors
801078d2 vector52
80107799 vector17
80107e1e vector184
80105de3 strlen
80106cc5 sys_pipe
80101d43 iinit
801044d2 picinit
80107f32 vector207
801089c0 inituvm
80107e66 vector190
801080b2 vector239
80107a4c vector94
80107a43 vector93
80100f83 debuginit
80103868 initlog
80107e4e vector188
801078ae vector48
80103010 iderw
80107fc2 vector219
80107c6e vector148
80107fda vector221
8010339e kalloc
80112a40 devsw
80106df1 sys_getpid
801079ce vector80
80107d82 vector171
80107cb6 vector154
80107842 vector36
80107201 sys_start_capture
80104614 pipealloc
80108082 vector235
80107aaf vector105
80105108 switch_scheduler
80106b0d sys_chdir
8010c68c lastprocidx
80112ac0 icache
80107c56 vector146
80107e72 vector191
80107a9d vector103
80106a6a sys_mknod
80103780 lapicstartap
8010885c switchuvm
80105a5d pushcli
801032a8 kinit2
8010776b vector11
80107780 vector14
80101837 filestat
