00000000 .text
00000823 .rodata
00000840 .data
00000854 .bss
00000000 .comment
00000000 .debug_aranges
00000000 .debug_pubnames
00000000 .debug_info
00000000 .debug_abbrev
00000000 .debug_line
00000000 .debug_frame
00000000 .debug_str
00000000 .debug_loc
00000000 .debug_pubtypes
00000000 kill.c
00000000 ulib.c
00000064 stosb
00000000 printf.c
00000380 putc
000003a8 printint
00000840 digits.927
00000000 umalloc.c
00000854 base
0000085c freep
000006eb morecore
00000089 strcpy
0000045c printf
00000282 memmove
00000370 stop_capture
00000310 mknod
00000179 gets
00000348 getpid
00000743 malloc
00000358 sleep
000002d8 pipe
000002e8 write
00000320 fstat
000002f8 kill
00000338 chdir
00000300 exec
000002d0 wait
000002e0 read
00000318 unlink
000002c0 fork
00000350 sbrk
00000360 uptime
00000854 __bss_start
00000122 memset
00000000 main
000000bc strcmp
00000340 dup
00000368 start_capture
000001e8 stat
00000854 _edata
00000860 _end
00000328 link
000002c8 exit
00000236 atoi
000000fd strlen
00000308 open
00000146 strchr
00000378 switch_scheduler
00000330 mkdir
000002f0 close
00000614 free
