00000000 .text
0000083b .rodata
0000086c .data
00000880 .bss
00000000 .comment
00000000 .debug_aranges
00000000 .debug_pubnames
00000000 .debug_info
00000000 .debug_abbrev
00000000 .debug_line
00000000 .debug_frame
00000000 .debug_str
00000000 .debug_loc
00000000 .debug_pubtypes
00000000 ln.c
00000000 ulib.c
0000007c stosb
00000000 printf.c
00000398 putc
000003c0 printint
0000086c digits.927
00000000 umalloc.c
00000880 base
00000888 freep
00000703 morecore
000000a1 strcpy
00000474 printf
0000029a memmove
00000388 stop_capture
00000328 mknod
00000191 gets
00000360 getpid
0000075b malloc
00000370 sleep
000002f0 pipe
00000300 write
00000338 fstat
00000310 kill
00000350 chdir
00000318 exec
000002e8 wait
000002f8 read
00000330 unlink
000002d8 fork
00000368 sbrk
00000378 uptime
00000880 __bss_start
0000013a memset
00000000 main
000000d4 strcmp
00000358 dup
00000380 start_capture
00000200 stat
00000880 _edata
0000088c _end
00000340 link
000002e0 exit
0000024e atoi
00000115 strlen
00000320 open
0000015e strchr
00000390 switch_scheduler
00000348 mkdir
00000308 close
0000062c free
