00000000 .text
00000843 .rodata
00000880 .data
00000894 .bss
00000000 .comment
00000000 .debug_aranges
00000000 .debug_pubnames
00000000 .debug_info
00000000 .debug_abbrev
00000000 .debug_line
00000000 .debug_frame
00000000 .debug_str
00000000 .debug_loc
00000000 .debug_pubtypes
00000000 mkdir.c
00000000 ulib.c
00000084 stosb
00000000 printf.c
000003a0 putc
000003c8 printint
00000880 digits.927
00000000 umalloc.c
00000894 base
0000089c freep
0000070b morecore
000000a9 strcpy
0000047c printf
000002a2 memmove
00000390 stop_capture
00000330 mknod
00000199 gets
00000368 getpid
00000763 malloc
00000378 sleep
000002f8 pipe
00000308 write
00000340 fstat
00000318 kill
00000358 chdir
00000320 exec
000002f0 wait
00000300 read
00000338 unlink
000002e0 fork
00000370 sbrk
00000380 uptime
00000894 __bss_start
00000142 memset
00000000 main
000000dc strcmp
00000360 dup
00000388 start_capture
00000208 stat
00000894 _edata
000008a0 _end
00000348 link
000002e8 exit
00000256 atoi
0000011d strlen
00000328 open
00000166 strchr
00000398 switch_scheduler
00000350 mkdir
00000310 close
00000634 free
